InsightNet EpiData Workshop 2024 – day1-afternoon
…
Working with the palmerpenguins Dataset

The palmerpenguins dataset is included in the palmerpenguins package.

Load both the tidyverse and palmerpenguins libraries to access and explore the dataset.

The dataset includes measurements of penguins such as species, bill length, flipper length, and body mass.

# A tibble: 344 × 8
   species island    bill_length_mm bill_depth_mm flipper_length_mm body_mass_g
   <fct>   <fct>              <dbl>         <dbl>             <int>       <int>
 1 Adelie  Torgersen           39.1          18.7               181        3750
 2 Adelie  Torgersen           39.5          17.4               186        3800
 3 Adelie  Torgersen           40.3          18                 195        3250
 4 Adelie  Torgersen           NA            NA                  NA          NA
 5 Adelie  Torgersen           36.7          19.3               193        3450
 6 Adelie  Torgersen           39.3          20.6               190        3650
 7 Adelie  Torgersen           38.9          17.8               181        3625
 8 Adelie  Torgersen           39.2          19.6               195        4675
 9 Adelie  Torgersen           34.1          18.1               193        3475
10 Adelie  Torgersen           42            20.2               190        4250
# ℹ 334 more rows
# ℹ 2 more variables: sex <fct>, year <int>
…
Creating Tibbles

Tibbles: Modern data frames with enhanced features.

Rows represent observations (or cases).

Columns represent variables (or features).

You can create tibbles manually using the tibble() function.

tibble(x = letters, y = 1:26)

# A tibble: 26 × 2
   x         y
   <chr> <int>
 1 a         1
 2 b         2
 3 c         3
 4 d         4
 5 e         5
 6 f         6
 7 g         7
 8 h         8
 9 i         9
10 j        10
# ℹ 16 more rows

Selecting Columns with select()

The select() function is used to pick specific columns from your dataset.

select(penguins, species, body_mass_g)  # Select the 'species' and 'body_mass_g' columns

# A tibble: 344 × 2
   species body_mass_g
   <fct>         <int>
 1 Adelie         3750
 2 Adelie         3800
 3 Adelie         3250
 4 Adelie           NA
 5 Adelie         3450
 6 Adelie         3650
 7 Adelie         3625
 8 Adelie         4675
 9 Adelie         3475
10 Adelie         4250
# ℹ 334 more rows

Selecting Columns with select()

You can exclude columns by prefixing the column names with a minus sign -.

select(penguins, -species)  # Exclude the 'species' column from the dataset

# A tibble: 344 × 7
   island bill_length_mm bill_depth_mm flipper_length_mm body_mass_g sex    year
   <fct>           <dbl>         <dbl>             <int>       <int> <fct> <int>
 1 Torge…           39.1          18.7               181        3750 male   2007
 2 Torge…           39.5          17.4               186        3800 fema…  2007
 3 Torge…           40.3          18                 195        3250 fema…  2007
 4 Torge…           NA            NA                  NA          NA <NA>   2007
 5 Torge…           36.7          19.3               193        3450 fema…  2007
 6 Torge…           39.3          20.6               190        3650 male   2007
 7 Torge…           38.9          17.8               181        3625 fema…  2007
 8 Torge…           39.2          19.6               195        4675 male   2007
 9 Torge…           34.1          18.1               193        3475 <NA>   2007
10 Torge…           42            20.2               190        4250 <NA>   2007
# ℹ 334 more rows
…
Illustration from the palmerpenguins website

Creating New Columns with mutate()

mutate() is used to create new columns.

Perform calculations using existing columns and assign to new columns.

penguins %>%
  mutate(bill_size_mm2 = bill_depth_mm * bill_length_mm) %>% 
  select(-c(flipper_length_mm, body_mass_g, sex)) # too many cols to print

# A tibble: 344 × 6
   species island    bill_length_mm bill_depth_mm  year bill_size_mm2
   <fct>   <fct>              <dbl>         <dbl> <int>         <dbl>
 1 Adelie  Torgersen           39.1          18.7  2007          731.
 2 Adelie  Torgersen           39.5          17.4  2007          687.
 3 Adelie  Torgersen           40.3          18    2007          725.
 4 Adelie  Torgersen           NA            NA    2007           NA 
 5 Adelie  Torgersen           36.7          19.3  2007          708.
 6 Adelie  Torgersen           39.3          20.6  2007          810.
 7 Adelie  Torgersen           38.9          17.8  2007          692.
 8 Adelie  Torgersen           39.2          19.6  2007          768.
 9 Adelie  Torgersen           34.1          18.1  2007          617.
10 Adelie  Torgersen           42            20.2  2007          848.
# ℹ 334 more rows

Creating New Columns with mutate()

mutate() can create multiple new columns in one step.

Logical comparisons (e.g., sex == "male") can be used within mutate().

penguins %>%
  mutate(bill_size_mm2 = bill_depth_mm * bill_length_mm, 
         TF = sex == "male") %>% 
  select(-c(flipper_length_mm, body_mass_g, year)) 

# A tibble: 344 × 7
   species island    bill_length_mm bill_depth_mm sex    bill_size_mm2 TF   
   <fct>   <fct>              <dbl>         <dbl> <fct>          <dbl> <lgl>
 1 Adelie  Torgersen           39.1          18.7 male            731. TRUE 
 2 Adelie  Torgersen           39.5          17.4 female          687. FALSE
 3 Adelie  Torgersen           40.3          18   female          725. FALSE
 4 Adelie  Torgersen           NA            NA   <NA>             NA  NA   
 5 Adelie  Torgersen           36.7          19.3 female          708. FALSE
 6 Adelie  Torgersen           39.3          20.6 male            810. TRUE 
 7 Adelie  Torgersen           38.9          17.8 female          692. FALSE
 8 Adelie  Torgersen           39.2          19.6 male            768. TRUE 
 9 Adelie  Torgersen           34.1          18.1 <NA>            617. NA   
10 Adelie  Torgersen           42            20.2 <NA>            848. NA   
# ℹ 334 more rows
…
epi_df

Represents a snapshot that contains the most up-to-date values of the signal variables, as of a given time.

epi_df: snapshot of a data set

edf <- covid_case_death_rates
edf

An `epi_df` object, 20,496 x 4 with metadata:
* geo_type  = state
* time_type = day
* as_of     = 2022-05-31

# A tibble: 20,496 × 4
   geo_value time_value case_rate death_rate
 * <chr>     <date>         <dbl>      <dbl>
 1 ak        2020-12-31      35.9      0.158
 2 al        2020-12-31      65.1      0.438
 3 ar        2020-12-31      66.0      1.27 
 4 as        2020-12-31       0        0    
 5 az        2020-12-31      76.8      1.10 
 6 ca        2020-12-31      96.0      0.751
 7 co        2020-12-31      35.8      0.649
 8 ct        2020-12-31      52.1      0.819
 9 dc        2020-12-31      31.0      0.601
10 de        2020-12-31      64.3      0.912
# ℹ 20,486 more rows
…
