InsightNet EpiData Workshop 2024 – day2-afternoon
…
Predict with fitted ARX (split-sample)

arx_forecaster fits a model to the training set, and outputs only one prediction (for time \(t_0+h\)).

To get predictions for the test set:

predict(epi_arx$epi_workflow, test)

An `epi_df` object, 707 x 6 with metadata:
* geo_type  = state
* time_type = day
* as_of     = 2024-11-06 08:50:44.00687

# A tibble: 707 × 6
   geo_value time_value .pred        .pred_distn forecast_date target_date
 * <chr>     <date>     <dbl>             <dist> <date>        <date>     
 1 ca        2021-04-02 0.217 quantiles(0.22)[2] 2021-04-01    2021-04-29 
 2 ca        2021-04-03 0.203  quantiles(0.2)[2] 2021-04-01    2021-04-29 
 3 ca        2021-04-04 0.197  quantiles(0.2)[2] 2021-04-01    2021-04-29 
 4 ca        2021-04-05 0.202  quantiles(0.2)[2] 2021-04-01    2021-04-29 
 5 ca        2021-04-06 0.199  quantiles(0.2)[2] 2021-04-01    2021-04-29 
 6 ca        2021-04-07 0.196  quantiles(0.2)[2] 2021-04-01    2021-04-29 
 7 ca        2021-04-08 0.193 quantiles(0.19)[2] 2021-04-01    2021-04-29 
 8 ca        2021-04-09 0.195  quantiles(0.2)[2] 2021-04-01    2021-04-29 
 9 ca        2021-04-10 0.209 quantiles(0.21)[2] 2021-04-01    2021-04-29 
10 ca        2021-04-11 0.214 quantiles(0.21)[2] 2021-04-01    2021-04-29 
# ℹ 697 more rows
…
The method fitting on all past data up to the forecasting date can be implemented by setting:

.window_size = Inf in epi_slide.

Predict with ARX (re-fitting on trailing window)

epi_pred_trailing 

An `epi_df` object, 680 x 9 with metadata:
* geo_type  = state
* time_type = day
* as_of     = 2024-11-06 08:50:44.00687

# A tibble: 680 × 9
# Groups:   geo_value [1]
   geo_value time_value cases deaths .pred forecast_date target_date `0.025`
 * <chr>     <date>     <dbl>  <dbl> <dbl> <date>        <date>        <dbl>
 1 ca        2021-04-01  6.77  0.375 0.337 2021-04-01    2021-04-29   0.0996
 2 ca        2021-04-02  7.27  0.340 0.340 2021-04-02    2021-04-30   0.104 
 3 ca        2021-04-03  6.79  0.293 0.331 2021-04-03    2021-05-01   0.0960
 4 ca        2021-04-04  6.51  0.281 0.327 2021-04-04    2021-05-02   0.0919
 5 ca        2021-04-05  6.87  0.284 0.330 2021-04-05    2021-05-03   0.0934
 6 ca        2021-04-06  6.97  0.267 0.329 2021-04-06    2021-05-04   0.0900
 7 ca        2021-04-07  6.92  0.253 0.326 2021-04-07    2021-05-05   0.0850
 8 ca        2021-04-08  6.97  0.234 0.322 2021-04-08    2021-05-06   0.0795
 9 ca        2021-04-09  7.07  0.243 0.322 2021-04-09    2021-05-07   0.0784
10 ca        2021-04-10  8.33  0.249 0.332 2021-04-10    2021-05-08   0.0878
# ℹ 670 more rows
# ℹ 1 more variable: `0.975` <dbl>
…
